[gd_scene load_steps=2 format=2]

[ext_resource path="res://scripts/Tile.gd" type="Script" id=1]

[node name="Tile" type="Node2D"]
script = ExtResource( 1 )

[node name="Border" type="ColorRect" parent="."]
margin_right = 10.0
margin_bottom = 10.0
color = Color( 0, 0, 0, 1 )
__meta__ = {
"_edit_use_anchors_": false
}

[node name="Inner" type="ColorRect" parent="."]
margin_left = 1.0
margin_top = 1.0
margin_right = 9.0
margin_bottom = 9.0
__meta__ = {
"_edit_use_anchors_": false
}
